\relax 
\select@language{english}
\@writefile{toc}{\select@language{english}}
\@writefile{lof}{\select@language{english}}
\@writefile{lot}{\select@language{english}}
\@writefile{toc}{\contentsline {section}{\numberline {1}Overview}{1}}
\newlabel{Overview}{{1}{1}}
\@writefile{toc}{\contentsline {section}{\numberline {2}Clustered Deployment}{1}}
\@writefile{toc}{\contentsline {section}{\numberline {3}Understanding Clustered Deployment in Detail}{1}}
\newlabel{doc}{{3}{1}}
\@writefile{toc}{\contentsline {subsection}{\numberline {3.1}Reserving Nodes through G5K}{1}}
\@writefile{toc}{\contentsline {subsection}{\numberline {3.2}Remote Deployment on G5K Nodes}{2}}
\@writefile{toc}{\contentsline {subsubsection}{\numberline {3.2.1}Jump From File to File}{2}}
\@writefile{toc}{\contentsline {subsubsection}{\numberline {3.2.2}Understanding Modify\_IP.sh}{2}}
\newlabel{ModifyIP}{{3.2.2}{2}}
\@writefile{lof}{\contentsline {figure}{\numberline {1}{\ignorespaces Content of mylog.txt\relax }}{2}}
\providecommand*\caption@xref[2]{\@setref\relax\@undefined{#1}}
\newlabel{mylog}{{1}{2}}
\bibstyle{IEEEtran}
\bibdata{Previous_Research}
\@writefile{toc}{\contentsline {subsubsection}{\numberline {3.2.3}Understanding Test.sh}{3}}
\@writefile{toc}{\contentsline {subsubsection}{\numberline {3.2.4}Understanding Installation\_Prerequisites.sh}{3}}
\@writefile{toc}{\contentsline {subsubsection}{\numberline {3.2.5}Understanding Zookeeper\_Installation.sh}{3}}
\@writefile{toc}{\contentsline {subsubsection}{\numberline {3.2.6}Understanding Zeromq\_Installation\_2.sh}{3}}
\@writefile{toc}{\contentsline {subsubsection}{\numberline {3.2.7}Understanding Storm\_Installation\_3.sh}{3}}
\@writefile{toc}{\contentsline {subsubsection}{\numberline {3.2.8}Understanding Start\_Nimbus.sh}{3}}
\@writefile{toc}{\contentsline {subsubsection}{\numberline {3.2.9}Understanding Start\_Supervisor.sh}{3}}
\@writefile{toc}{\contentsline {subsubsection}{\numberline {3.2.10}Understanding Topology.sh}{3}}
