\relax 
\select@language{english}
\@writefile{toc}{\select@language{english}}
\@writefile{lof}{\select@language{english}}
\@writefile{lot}{\select@language{english}}
\@writefile{toc}{\contentsline {section}{\numberline {1}Overview}{1}}
\newlabel{Overview}{{1}{1}}
\@writefile{toc}{\contentsline {section}{\numberline {2}Understanding Script.sh}{1}}
\@writefile{toc}{\contentsline {subsection}{\numberline {2.1}Extraction Using Kwapi}{1}}
\bibstyle{IEEEtran}
\bibdata{Previous_Research}
\@writefile{toc}{\contentsline {subsection}{\numberline {2.2}Extraction Using Ganglia}{2}}
\@writefile{toc}{\contentsline {subsection}{\numberline {2.3}Independent of Application}{2}}
