\relax 
\select@language{english}
\@writefile{toc}{\select@language{english}}
\@writefile{lof}{\select@language{english}}
\@writefile{lot}{\select@language{english}}
\@writefile{toc}{\contentsline {section}{\numberline {1}Overview}{1}}
\newlabel{Overview}{{1}{1}}
\@writefile{toc}{\contentsline {section}{\numberline {2}Local Deployment}{1}}
\@writefile{toc}{\contentsline {section}{\numberline {3}Clustered Deployment}{1}}
\@writefile{toc}{\contentsline {section}{\numberline {4}Understanding Clustered Deployment in Detail}{1}}
\newlabel{doc}{{4}{1}}
\@writefile{toc}{\contentsline {subsection}{\numberline {4.1}Reserving Nodes through G5K}{1}}
\@writefile{toc}{\contentsline {subsection}{\numberline {4.2}Remote Deployment on G5K Nodes}{2}}
\@writefile{toc}{\contentsline {subsubsection}{\numberline {4.2.1}Jump From File to File}{2}}
\@writefile{toc}{\contentsline {subsubsection}{\numberline {4.2.2}Understanding Modify\_IP.sh}{2}}
\newlabel{ModifyIP}{{4.2.2}{2}}
\@writefile{lof}{\contentsline {figure}{\numberline {1}{\ignorespaces Content of mylog.txt\relax }}{3}}
\providecommand*\caption@xref[2]{\@setref\relax\@undefined{#1}}
\newlabel{mylog}{{1}{3}}
\@writefile{toc}{\contentsline {subsubsection}{\numberline {4.2.3}Understanding Test.sh}{3}}
\@writefile{toc}{\contentsline {subsubsection}{\numberline {4.2.4}Understanding Heron\_Prerequisites\_1.sh and Installation\_Prerequisites\_2.sh}{3}}
\@writefile{toc}{\contentsline {subsubsection}{\numberline {4.2.5}Deploying Mesos in Clustered Mode}{3}}
\@writefile{toc}{\contentsline {subsubsection}{\numberline {4.2.6}Deploying Aurora in Clustered Mode}{4}}
\@writefile{toc}{\contentsline {subsubsection}{\numberline {4.2.7}Deploying Hadoop in Clustered Mode}{4}}
\@writefile{toc}{\contentsline {subsubsection}{\numberline {4.2.8}Understanding Heron\_Installation\_Master\_11.sh}{4}}
\bibstyle{IEEEtran}
\bibdata{Previous_Research}
\@writefile{toc}{\contentsline {subsubsection}{\numberline {4.2.9}Understanding Topology.sh}{5}}
