\relax 
\bibstyle{IEEEtran}
\bibdata{Previous_Research}
\select@language{english}
\@writefile{toc}{\select@language{english}}
\@writefile{lof}{\select@language{english}}
\@writefile{lot}{\select@language{english}}
\@writefile{toc}{\contentsline {section}{\numberline {1}Overview}{1}}
\newlabel{Overview}{{1}{1}}
\@writefile{toc}{\contentsline {subsection}{\numberline {1.1}Create a Maven Project}{1}}
\@writefile{toc}{\contentsline {subsection}{\numberline {1.2}Flink Applications}{1}}
