\relax 
\select@language{english}
\@writefile{toc}{\select@language{english}}
\@writefile{lof}{\select@language{english}}
\@writefile{lot}{\select@language{english}}
\@writefile{toc}{\contentsline {section}{\numberline {1}Overview}{1}}
\newlabel{Overview}{{1}{1}}
\@writefile{toc}{\contentsline {section}{\numberline {2}Understanding in Detail}{1}}
\newlabel{doc}{{2}{1}}
\@writefile{toc}{\contentsline {subsection}{\numberline {2.1}Reserving Nodes through G5K}{1}}
\@writefile{toc}{\contentsline {subsection}{\numberline {2.2}Remote Deployment on G5K Nodes}{1}}
\@writefile{toc}{\contentsline {subsubsection}{\numberline {2.2.1}Jump From File to File}{2}}
\@writefile{toc}{\contentsline {subsubsection}{\numberline {2.2.2}Understanding Modify\_IP.sh}{2}}
\newlabel{ModifyIP}{{2.2.2}{2}}
\@writefile{lof}{\contentsline {figure}{\numberline {1}{\ignorespaces Content of mylog.txt\relax }}{2}}
\providecommand*\caption@xref[2]{\@setref\relax\@undefined{#1}}
\newlabel{mylog}{{1}{2}}
\@writefile{toc}{\contentsline {subsubsection}{\numberline {2.2.3}Understanding Test.sh}{3}}
\@writefile{toc}{\contentsline {subsubsection}{\numberline {2.2.4}Understanding Installation\_Prerequisites.sh}{3}}
\@writefile{toc}{\contentsline {subsubsection}{\numberline {2.2.5}Deploying Hadoop in Clustered Mode}{3}}
\@writefile{toc}{\contentsline {subsubsection}{\numberline {2.2.6}Understanding Flink\_Setup.sh}{3}}
\bibstyle{IEEEtran}
\bibdata{Previous_Research}
\@writefile{toc}{\contentsline {subsubsection}{\numberline {2.2.7}Understanding Topology.sh}{4}}
\@writefile{toc}{\contentsline {subsection}{\numberline {2.3}Integrating Kafka}{4}}
\@writefile{toc}{\contentsline {subsubsection}{\numberline {2.3.1}Understanding Start\_Flink.sh}{4}}
\newlabel{start Flink}{{2.3.1}{4}}
